{
    "BeanstalkRegion": [
        "us-west-1",
        "elasticbeanstalk.us-west-1.amazonaws.com"
    ],
    "ElbRegion" : [
    	"us-west-1",
	"elasticloadbalancing.us-west-1.amazonaws.com"
    ],
    "CmdLineOptArguments": {
        "internet-facing": "aws:ec2:vpc_internet-facing.json"
    },
    "env_name": "ets-prod-01",
    "app_name": "ets-prod-01",
    "stack_name" : "64bit Amazon Linux running Tomcat 7",
    "description" : "ets-prod-01",
    "LoadBalancerSecurityGroups" : "sg-af3f21c3",
    "aws_access_key_id" : "FILL_VALUE",
    "aws_secret_access_key" : "FILL_VALUE"


}
