{ "aws:elb:loadbalancer" : 
  { 
    "LoadBalancerHTTPPort" : 80,
    "LoadBalancerHTTPSPort" : 443,
    "SSLCertificateId" : "arn:aws:iam::120953298200:server-certificate/wildcard.supportspace.com"
  }

}
