{ "aws:elasticbeanstalk:application:environment" : 
	{
		"AWS_ACCESS_KEY_ID" : "AKIAJ7CHLKNJ6GDFPZUA",
		"AWS_SECRET_KEY" : "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",
		"DB_USER_NAME" : "s2AdminMysql",
		"DB_PASSWORD" : "Shahj3oa1ohYahgiefaK",
		"JDBC_CONNECTION_STRING" : "jdbc:mysql://172.23.50.144:3306/s2admindb",
		"STARGATE_URL" : "http://www.supportspace.com",
		"SERVER_URL" : "https://admin.supportspace.com",
		"MAIL_PASSWORD_EXPIRY" : "4320",
		"MAIL_SERVICE_DEFAULT_FROM" : "do-not-replay@admin.supportspace.com",
		"MAIL_SERVICE_HOST" : "smtp.dynect.net",
		"MAIL_SERVICE_PORT" : "25",
		"MAIL_SERVICE_USERNAME" : "guyg@supportspace.com",
		"MAIL_SERVICE_PASSWORD" : "j%Kd*nP412",
		"RABBIT_HOST" : "127.0.0.1",
		"RABBIT_VIRTUAL_HOST" : "/",
		"RABBIT_USERNAME" : "guest",
		"RABBIT_PASSWORD" : "guest",
		"RABBIT_EXCHANGE" : "admin_audit",
		"IS_IN_AWS" : "2003",
		"SOCKET_APPENDER_HOST" : "172.23.50.254",
		"SOCKET_APPENDER_PORT" : "4560",
		"PARAM1" : "/support/api/v1/partner",
		"PARAM2" : "AdminService",
		"PARAM3" : "so2sahnahz2weeC2OoPhah0xon2ieLupho1ue2feebeephiehe",
		"PARAM4" : "/support/api/v1/customer",
		"PARAM5" : "/support/api/v1/session",
		"PARAM6" : "/support/api/v1/sessionReport",
		"PARAM7" : "/support/api/v1/feedback",
		"PARAM8" : "/support/api/v1/entitlement",
		"PARAM9" : "/support/api/v1/csws/creditCardChangeUrl",
		"PARAM10" : "/support/api/v1/transaction/creditcard",
		"PARAM11" : "",
		"PARAM12" : "",
		"PARAM13" : "",
		"PARAM14" : "",
		"PARAM15" : ""
	
	}
}

